%YAML 1.1
%TAG !u! tag:unity3d.com,2011:
--- !u!114 &11400000
MonoBehaviour:
  m_ObjectHideFlags: 0
  m_PrefabParentObject: {fileID: 0}
  m_PrefabInternal: {fileID: 0}
  m_GameObject: {fileID: 0}
  m_Enabled: 1
  m_EditorHideFlags: 0
  m_Script: {fileID: 11500000, guid: c6326accda7e548478e69412c71472fe, type: 3}
  m_Name: Generic NPC
  m_EditorClassIdentifier: 
  name: NPC
  sprite: {fileID: 0}
  level: 0
  experience: 0
  maxHP: 0
  maxMP: 0
  strength: 0
  vitality: 0
  intelligence: 0
  spirit: 0
  speed: 0
  evasion: 0
  atk: 0
  def: 0
  matk: 0
  mdef: 0
  Element: {fileID: 0}
  Actions: []
