%YAML 1.1
%TAG !u! tag:unity3d.com,2011:
--- !u!114 &11400000
MonoBehaviour:
  m_ObjectHideFlags: 0
  m_PrefabParentObject: {fileID: 0}
  m_PrefabInternal: {fileID: 0}
  m_GameObject: {fileID: 0}
  m_Enabled: 1
  m_EditorHideFlags: 0
  m_Script: {fileID: 11500000, guid: 79c72c8c3a8cc1f4e9bdd4be7390dc23, type: 3}
  m_Name: Rest
  m_EditorClassIdentifier: 
  m_name: Rest
  m_targetType: 3
  CooldownTime: 0
  Power: 1
  CanHaveMultipleTargets: 0
  Restorative: 0
